{"photos":{"page":1,"pages":19196,"perpage":10,"total":191959,"photo":[{"id":"51284612156","owner":"192195873@N07","secret":"6dc826fe6e","server":"65535","farm":66,"title":"Auto Insurance agent in Boulder County","ispublic":1,"isfriend":0,"isfamily":0},{"id":"51284608141","owner":"28826708@N03","secret":"2d5baccf34","server":"65535","farm":66,"title":"1966 Dodge Charger hardtop Hemi","ispublic":1,"isfriend":0,"isfamily":0},{"id":"51284777508","owner":"28826708@N03","secret":"3d076b8485","server":"65535","farm":66,"title":"1966 Dodge Charger Hemi hardtop","ispublic":1,"isfriend":0,"isfamily":0},{"id":"51284773573","owner":"190919373@N07","secret":"a4dac165c2","server":"65535","farm":66,"title":"Car Radio","ispublic":1,"isfriend":0,"isfamily":0},{"id":"51283854187","owner":"188792510@N04","secret":"9f7ab177e2","server":"65535","farm":66,"title":"StarWars Episode 1 Darth Maul Action Figure","ispublic":1,"isfriend":0,"isfamily":0},{"id":"51285322354","owner":"80075377@N05","secret":"134f22d9c7","server":"65535","farm":66,"title":"Hong Kong Transport - Trucks","ispublic":1,"isfriend":0,"isfamily":0},{"id":"51283850347","owner":"80075377@N05","secret":"e381287c65","server":"65535","farm":66,"title":"Hong Kong Transport - Trucks","ispublic":1,"isfriend":0,"isfamily":0},{"id":"51285314344","owner":"80075377@N05","secret":"278d14cb1a","server":"65535","farm":66,"title":"Hong Kong Transport - Trucks","ispublic":1,"isfriend":0,"isfamily":0},{"id":"51285311474","owner":"80075377@N05","secret":"3eb3f89d40","server":"65535","farm":66,"title":"Hong Kong Transport - Trucks","ispublic":1,"isfriend":0,"isfamily":0},{"id":"51284607891","owner":"28826708@N03","secret":"4b61c08563","server":"65535","farm":66,"title":"1966 Charger hardtop Hemi","ispublic":1,"isfriend":0,"isfamily":0}]},"stat":"ok"}
